…
# Import flights data from nycflights13 package.

- Main data
    
    ```r
    data("flights")
    ```
    
    ```
    # A tibble: 336,776 × 19
        year month   day dep_time sched_dep_time dep_delay arr_time sched_arr_time arr_delay
       <int> <int> <int>    <int>          <int>     <dbl>    <int>          <int>     <dbl>
     1  2013     1     1      517            515         2      830            819        11
     2  2013     1     1      533            529         4      850            830        20
     3  2013     1     1      542            540         2      923            850        33
     4  2013     1     1      544            545        -1     1004           1022       -18
     5  2013     1     1      554            600        -6      812            837       -25
     6  2013     1     1      554            558        -4      740            728        12
     7  2013     1     1      555            600        -5      913            854        19
     8  2013     1     1      557            600        -3      709            723       -14
     9  2013     1     1      557            600        -3      838            846        -8
    10  2013     1     1      558            600        -2      753            745         8
    # ℹ 336,766 more rows
    # ℹ 10 more variables: carrier <chr>, flight <int>, tailnum <chr>, origin <chr>,
    #   dest <chr>, air_time <dbl>, distance <dbl>, hour <dbl>, minute <dbl>,
    #   time_hour <dttm>
    # ℹ Use `print(n = ...)` to see more rows
    ```
…
- Detail of planes
    
    ```r
    data("planes")
    ```
    
    ```
    # A tibble: 3,322 × 9
       tailnum  year type                    manufacturer    model engines seats speed engine
       <chr>   <int> <chr>                   <chr>           <chr>   <int> <int> <int> <chr> 
     1 N10156   2004 Fixed wing multi engine EMBRAER         EMB-…       2    55    NA Turbo…
     2 N102UW   1998 Fixed wing multi engine AIRBUS INDUSTR… A320…       2   182    NA Turbo…
     3 N103US   1999 Fixed wing multi engine AIRBUS INDUSTR… A320…       2   182    NA Turbo…
     4 N104UW   1999 Fixed wing multi engine AIRBUS INDUSTR… A320…       2   182    NA Turbo…
     5 N10575   2002 Fixed wing multi engine EMBRAER         EMB-…       2    55    NA Turbo…
     6 N105UW   1999 Fixed wing multi engine AIRBUS INDUSTR… A320…       2   182    NA Turbo…
     7 N107US   1999 Fixed wing multi engine AIRBUS INDUSTR… A320…       2   182    NA Turbo…
     8 N108UW   1999 Fixed wing multi engine AIRBUS INDUSTR… A320…       2   182    NA Turbo…
     9 N109UW   1999 Fixed wing multi engine AIRBUS INDUSTR… A320…       2   182    NA Turbo…
    10 N110UW   1999 Fixed wing multi engine AIRBUS INDUSTR… A320…       2   182    NA Turbo…
    # ℹ 3,312 more rows
    # ℹ Use `print(n = ...)` to see more rows
    ```
…
```
# A tibble: 4,043 × 4
   tailnum tailnum_year sum_distance flights_times
   <chr>          <int>        <dbl>         <int>
 1 N328AA          1986       939101           393
 2 N338AA          1987       931183           388
 3 N327AA          1986       915665           387
 4 N335AA          1987       909696           385
 5 N323AA          1986       844529           357
 6 N319AA          1985       840510           354
 7 N336AA          1987       838086           353
 8 N329AA          1987       830776           344
 9 N324AA          1986       794895           328
10 N339AA          1988       786123           326
# ℹ 4,033 more rows
# ℹ Use `print(n = ...)` to see more rows
```
…
```
# A tibble: 4,044 × 3
   tailnum tailnum_year avg_delay
   <chr>          <int>     <dbl>
 1 N844MH          2002       297
 2 N922EV          2003       274
 3 N587NW          2002       272
 4 N911DA          1995       268
 5 N851NW          2004       233
 6 N654UA          1992       227
 7 N928DN            NA       203
 8 N7715E          2005       186
 9 N665MQ            NA       177
10 N136DL          1991       165
# ℹ 4,034 more rows
# ℹ Use `print(n = ...)` to see more rows
```

# Q5 - Which plane has good speed (distance per hours.)?

```r
flights %>%
  mutate(mph = distance / (air_time/60)) %>%
  group_by(tailnum) %>%
  summarise(avg_mph = mean(mph, na.rm=T)) %>%
  arrange(desc(avg_mph))
```

```
# A tibble: 4,044 × 2
   tailnum avg_mph
   <chr>     <dbl>
 1 N228UA     501.
 2 N315AS     499.
 3 N654UA     499.
 4 N819AW     490.
 5 N382HA     486.
 6 N388HA     484.
 7 N391HA     484.
 8 N777UA     483.
 9 N385HA     483.
10 N392HA     482.
# ℹ 4,034 more rows
# ℹ Use `print(n = ...)` to see more rows
```

# Q6 - Which place has the most planes landing?

```r
flights %>%
  filter(year == 2013) %>%
  group_by(dest) %>%
  summarize(flight_times = n()) %>%
  select(Destination = dest, flight_times)
  arrange(desc(flight_times))
```

```
# A tibble: 105 × 2
   Destination flight_times
   <chr>              <int>
 1 ORD                17283
 2 ATL                17215
 3 LAX                16174
 4 BOS                15508
 5 MCO                14082
 6 CLT                14064
 7 SFO                13331
 8 FLL                12055
 9 MIA                11728
10 DCA                 9705
# ℹ 95 more rows
# ℹ Use `print(n = ...)` to see more rows
```
